Assignments/Assignment_6/transcript
# vsim fifo_DUT -c -do "run -all" 
# Start time: 17:46:35 on Jul 17,2025
# Loading work.fifo_DUT
# Loading work.fifo
# run -all
# Time = 10, Status: wr_ptr=  0, rd_ptr=  0, full= 0, empty= 1, almost_full = 0, almost_empty = 1, data_count =           0
# Time = 35, Status: wr_ptr=  1, rd_ptr=  0, full= 0, empty= 0, almost_full = 0, almost_empty = 1, data_count =           1
# Time = 55, Status: wr_ptr=  1, rd_ptr=  1, full= 0, empty= 1, almost_full = 0, almost_empty = 1, data_count =           0
# Time = 115, Status: wr_ptr=  2, rd_ptr=  1, full= 0, empty= 0, almost_full = 0, almost_empty = 1, data_count =           1
# Time = 135, Status: wr_ptr=  3, rd_ptr=  1, full= 0, empty= 0, almost_full = 0, almost_empty = 1, data_count =           2
# Time = 155, Status: wr_ptr=  4, rd_ptr=  1, full= 0, empty= 0, almost_full = 0, almost_empty = 0, data_count =           3
# Time = 175, Status: wr_ptr=  5, rd_ptr=  1, full= 0, empty= 0, almost_full = 0, almost_empty = 0, data_count =           4
# Time = 195, Status: wr_ptr=  6, rd_ptr=  1, full= 0, empty= 0, almost_full = 0, almost_empty = 0, data_count =           5
# Time = 215, Status: wr_ptr=  7, rd_ptr=  1, full= 0, empty= 0, almost_full = 0, almost_empty = 0, data_count =           6
# Time = 235, Status: wr_ptr=  8, rd_ptr=  1, full= 0, empty= 0, almost_full = 0, almost_empty = 0, data_count =           7
# Time = 255, Status: wr_ptr=  9, rd_ptr=  1, full= 0, empty= 0, almost_full = 0, almost_empty = 0, data_count =           8
# Time = 275, Status: wr_ptr= 10, rd_ptr=  1, full= 0, empty= 0, almost_full = 0, almost_empty = 0, data_count =           9
# Time = 295, Status: wr_ptr= 11, rd_ptr=  1, full= 0, empty= 0, almost_full = 0, almost_empty = 0, data_count =          10
# Time = 315, Status: wr_ptr= 12, rd_ptr=  1, full= 0, empty= 0, almost_full = 0, almost_empty = 0, data_count =          11
# Time = 335, Status: wr_ptr= 13, rd_ptr=  1, full= 0, empty= 0, almost_full = 0, almost_empty = 0, data_count =          12
# Time = 355, Status: wr_ptr= 14, rd_ptr=  1, full= 0, empty= 0, almost_full = 0, almost_empty = 0, data_count =          13
# Time = 375, Status: wr_ptr= 15, rd_ptr=  1, full= 0, empty= 0, almost_full = 0, almost_empty = 0, data_count =          14
# Time = 395, Status: wr_ptr= 16, rd_ptr=  1, full= 0, empty= 0, almost_full = 0, almost_empty = 0, data_count =          15
# Time = 415, Status: wr_ptr= 17, rd_ptr=  1, full= 0, empty= 0, almost_full = 0, almost_empty = 0, data_count =          16
# Time = 435, Status: wr_ptr= 18, rd_ptr=  1, full= 0, empty= 0, almost_full = 0, almost_empty = 0, data_count =          17
# Time = 455, Status: wr_ptr= 19, rd_ptr=  1, full= 0, empty= 0, almost_full = 0, almost_empty = 0, data_count =          18
# Time = 475, Status: wr_ptr= 20, rd_ptr=  1, full= 0, empty= 0, almost_full = 0, almost_empty = 0, data_count =          19
# Time = 495, Status: wr_ptr= 21, rd_ptr=  1, full= 0, empty= 0, almost_full = 0, almost_empty = 0, data_count =          20
# Time = 515, Status: wr_ptr= 22, rd_ptr=  1, full= 0, empty= 0, almost_full = 0, almost_empty = 0, data_count =          21
# Time = 535, Status: wr_ptr= 23, rd_ptr=  1, full= 0, empty= 0, almost_full = 0, almost_empty = 0, data_count =          22
# Time = 555, Status: wr_ptr= 24, rd_ptr=  1, full= 0, empty= 0, almost_full = 0, almost_empty = 0, data_count =          23
# Time = 575, Status: wr_ptr= 25, rd_ptr=  1, full= 0, empty= 0, almost_full = 0, almost_empty = 0, data_count =          24
# Time = 595, Status: wr_ptr= 26, rd_ptr=  1, full= 0, empty= 0, almost_full = 0, almost_empty = 0, data_count =          25
# Time = 615, Status: wr_ptr= 27, rd_ptr=  1, full= 0, empty= 0, almost_full = 0, almost_empty = 0, data_count =          26
# Time = 635, Status: wr_ptr= 28, rd_ptr=  1, full= 0, empty= 0, almost_full = 0, almost_empty = 0, data_count =          27
# Time = 655, Status: wr_ptr= 29, rd_ptr=  1, full= 0, empty= 0, almost_full = 0, almost_empty = 0, data_count =          28
# Time = 675, Status: wr_ptr= 30, rd_ptr=  1, full= 0, empty= 0, almost_full = 0, almost_empty = 0, data_count =          29
# Time = 695, Status: wr_ptr= 31, rd_ptr=  1, full= 0, empty= 0, almost_full = 0, almost_empty = 0, data_count =          30
# Time = 715, Status: wr_ptr= 32, rd_ptr=  1, full= 0, empty= 0, almost_full = 0, almost_empty = 0, data_count =          31
# Time = 735, Status: wr_ptr= 33, rd_ptr=  1, full= 0, empty= 0, almost_full = 0, almost_empty = 0, data_count =          32
# Time = 755, Status: wr_ptr= 34, rd_ptr=  1, full= 0, empty= 0, almost_full = 0, almost_empty = 0, data_count =          33
# Time = 775, Status: wr_ptr= 35, rd_ptr=  1, full= 0, empty= 0, almost_full = 0, almost_empty = 0, data_count =          34
# Time = 795, Status: wr_ptr= 36, rd_ptr=  1, full= 0, empty= 0, almost_full = 0, almost_empty = 0, data_count =          35
# Time = 815, Status: wr_ptr= 37, rd_ptr=  1, full= 0, empty= 0, almost_full = 0, almost_empty = 0, data_count =          36
# Time = 835, Status: wr_ptr= 38, rd_ptr=  1, full= 0, empty= 0, almost_full = 0, almost_empty = 0, data_count =          37
# Time = 855, Status: wr_ptr= 39, rd_ptr=  1, full= 0, empty= 0, almost_full = 0, almost_empty = 0, data_count =          38
# Time = 875, Status: wr_ptr= 40, rd_ptr=  1, full= 0, empty= 0, almost_full = 0, almost_empty = 0, data_count =          39
# Time = 895, Status: wr_ptr= 41, rd_ptr=  1, full= 0, empty= 0, almost_full = 0, almost_empty = 0, data_count =          40
# Time = 915, Status: wr_ptr= 42, rd_ptr=  1, full= 0, empty= 0, almost_full = 0, almost_empty = 0, data_count =          41
# Time = 935, Status: wr_ptr= 43, rd_ptr=  1, full= 0, empty= 0, almost_full = 0, almost_empty = 0, data_count =          42
# Time = 955, Status: wr_ptr= 44, rd_ptr=  1, full= 0, empty= 0, almost_full = 0, almost_empty = 0, data_count =          43
# Time = 975, Status: wr_ptr= 45, rd_ptr=  1, full= 0, empty= 0, almost_full = 0, almost_empty = 0, data_count =          44
# Time = 995, Status: wr_ptr= 46, rd_ptr=  1, full= 0, empty= 0, almost_full = 0, almost_empty = 0, data_count =          45
# Time = 1015, Status: wr_ptr= 47, rd_ptr=  1, full= 0, empty= 0, almost_full = 0, almost_empty = 0, data_count =          46
# Time = 1035, Status: wr_ptr= 48, rd_ptr=  1, full= 0, empty= 0, almost_full = 0, almost_empty = 0, data_count =          47
# Time = 1055, Status: wr_ptr= 49, rd_ptr=  1, full= 0, empty= 0, almost_full = 0, almost_empty = 0, data_count =          48
# Time = 1075, Status: wr_ptr= 50, rd_ptr=  1, full= 0, empty= 0, almost_full = 0, almost_empty = 0, data_count =          49
# Time = 1095, Status: wr_ptr= 51, rd_ptr=  1, full= 0, empty= 0, almost_full = 0, almost_empty = 0, data_count =          50
# Time = 1115, Status: wr_ptr= 52, rd_ptr=  1, full= 0, empty= 0, almost_full = 0, almost_empty = 0, data_count =          51
# Time = 1135, Status: wr_ptr= 53, rd_ptr=  1, full= 0, empty= 0, almost_full = 0, almost_empty = 0, data_count =          52
# Time = 1155, Status: wr_ptr= 54, rd_ptr=  1, full= 0, empty= 0, almost_full = 0, almost_empty = 0, data_count =          53
# Time = 1175, Status: wr_ptr= 55, rd_ptr=  1, full= 0, empty= 0, almost_full = 0, almost_empty = 0, data_count =          54
# Time = 1195, Status: wr_ptr= 56, rd_ptr=  1, full= 0, empty= 0, almost_full = 0, almost_empty = 0, data_count =          55
# Time = 1215, Status: wr_ptr= 57, rd_ptr=  1, full= 0, empty= 0, almost_full = 0, almost_empty = 0, data_count =          56
# Time = 1235, Status: wr_ptr= 58, rd_ptr=  1, full= 0, empty= 0, almost_full = 0, almost_empty = 0, data_count =          57
# Time = 1255, Status: wr_ptr= 59, rd_ptr=  1, full= 0, empty= 0, almost_full = 0, almost_empty = 0, data_count =          58
# Time = 1275, Status: wr_ptr= 60, rd_ptr=  1, full= 0, empty= 0, almost_full = 0, almost_empty = 0, data_count =          59
# Time = 1295, Status: wr_ptr= 61, rd_ptr=  1, full= 0, empty= 0, almost_full = 0, almost_empty = 0, data_count =          60
# Time = 1315, Status: wr_ptr= 62, rd_ptr=  1, full= 0, empty= 0, almost_full = 0, almost_empty = 0, data_count =          61
# Time = 1335, Status: wr_ptr= 63, rd_ptr=  1, full= 0, empty= 0, almost_full = 1, almost_empty = 0, data_count =          62
# Time = 1355, Status: wr_ptr= 64, rd_ptr=  1, full= 0, empty= 0, almost_full = 1, almost_empty = 0, data_count =          63
# Time = 1375, Status: wr_ptr= 65, rd_ptr=  1, full= 1, empty= 0, almost_full = 1, almost_empty = 0, data_count =          64
# Time = 1415, Status: wr_ptr= 65, rd_ptr=  2, full= 0, empty= 0, almost_full = 1, almost_empty = 0, data_count =          63
# Time = 1435, Status: wr_ptr= 65, rd_ptr=  3, full= 0, empty= 0, almost_full = 1, almost_empty = 0, data_count =          62
# Time = 1455, Status: wr_ptr= 65, rd_ptr=  4, full= 0, empty= 0, almost_full = 0, almost_empty = 0, data_count =          61
# Time = 1475, Status: wr_ptr= 65, rd_ptr=  5, full= 0, empty= 0, almost_full = 0, almost_empty = 0, data_count =          60
# Time = 1495, Status: wr_ptr= 65, rd_ptr=  6, full= 0, empty= 0, almost_full = 0, almost_empty = 0, data_count =          59
# Time = 1515, Status: wr_ptr= 65, rd_ptr=  7, full= 0, empty= 0, almost_full = 0, almost_empty = 0, data_count =          58
# Time = 1535, Status: wr_ptr= 65, rd_ptr=  8, full= 0, empty= 0, almost_full = 0, almost_empty = 0, data_count =          57
# Time = 1555, Status: wr_ptr= 65, rd_ptr=  9, full= 0, empty= 0, almost_full = 0, almost_empty = 0, data_count =          56
# Time = 1575, Status: wr_ptr= 65, rd_ptr= 10, full= 0, empty= 0, almost_full = 0, almost_empty = 0, data_count =          55
# Time = 1595, Status: wr_ptr= 65, rd_ptr= 11, full= 0, empty= 0, almost_full = 0, almost_empty = 0, data_count =          54
# Time = 1615, Status: wr_ptr= 65, rd_ptr= 12, full= 0, empty= 0, almost_full = 0, almost_empty = 0, data_count =          53
# Time = 1635, Status: wr_ptr= 65, rd_ptr= 13, full= 0, empty= 0, almost_full = 0, almost_empty = 0, data_count =          52
# Time = 1655, Status: wr_ptr= 65, rd_ptr= 14, full= 0, empty= 0, almost_full = 0, almost_empty = 0, data_count =          51
# Time = 1675, Status: wr_ptr= 65, rd_ptr= 15, full= 0, empty= 0, almost_full = 0, almost_empty = 0, data_count =          50
# Time = 1695, Status: wr_ptr= 65, rd_ptr= 16, full= 0, empty= 0, almost_full = 0, almost_empty = 0, data_count =          49
# Time = 1715, Status: wr_ptr= 65, rd_ptr= 17, full= 0, empty= 0, almost_full = 0, almost_empty = 0, data_count =          48
# Time = 1735, Status: wr_ptr= 65, rd_ptr= 18, full= 0, empty= 0, almost_full = 0, almost_empty = 0, data_count =          47
# Time = 1755, Status: wr_ptr= 65, rd_ptr= 19, full= 0, empty= 0, almost_full = 0, almost_empty = 0, data_count =          46
# Time = 1775, Status: wr_ptr= 65, rd_ptr= 20, full= 0, empty= 0, almost_full = 0, almost_empty = 0, data_count =          45
# Time = 1795, Status: wr_ptr= 65, rd_ptr= 21, full= 0, empty= 0, almost_full = 0, almost_empty = 0, data_count =          44
# Time = 1815, Status: wr_ptr= 65, rd_ptr= 22, full= 0, empty= 0, almost_full = 0, almost_empty = 0, data_count =          43
# Time = 1835, Status: wr_ptr= 65, rd_ptr= 23, full= 0, empty= 0, almost_full = 0, almost_empty = 0, data_count =          42
# Time = 1855, Status: wr_ptr= 65, rd_ptr= 24, full= 0, empty= 0, almost_full = 0, almost_empty = 0, data_count =          41
# Time = 1875, Status: wr_ptr= 65, rd_ptr= 25, full= 0, empty= 0, almost_full = 0, almost_empty = 0, data_count =          40
# Time = 1895, Status: wr_ptr= 65, rd_ptr= 26, full= 0, empty= 0, almost_full = 0, almost_empty = 0, data_count =          39
# Time = 1915, Status: wr_ptr= 65, rd_ptr= 27, full= 0, empty= 0, almost_full = 0, almost_empty = 0, data_count =          38
# Time = 1935, Status: wr_ptr= 65, rd_ptr= 28, full= 0, empty= 0, almost_full = 0, almost_empty = 0, data_count =          37
# Time = 1955, Status: wr_ptr= 65, rd_ptr= 29, full= 0, empty= 0, almost_full = 0, almost_empty = 0, data_count =          36
# Time = 1975, Status: wr_ptr= 65, rd_ptr= 30, full= 0, empty= 0, almost_full = 0, almost_empty = 0, data_count =          35
# Time = 1995, Status: wr_ptr= 65, rd_ptr= 31, full= 0, empty= 0, almost_full = 0, almost_empty = 0, data_count =          34
# Time = 2015, Status: wr_ptr= 65, rd_ptr= 32, full= 0, empty= 0, almost_full = 0, almost_empty = 0, data_count =          33
# Time = 2035, Status: wr_ptr= 65, rd_ptr= 33, full= 0, empty= 0, almost_full = 0, almost_empty = 0, data_count =          32
# Time = 2055, Status: wr_ptr= 65, rd_ptr= 34, full= 0, empty= 0, almost_full = 0, almost_empty = 0, data_count =          31
# Time = 2075, Status: wr_ptr= 65, rd_ptr= 35, full= 0, empty= 0, almost_full = 0, almost_empty = 0, data_count =          30
# Time = 2095, Status: wr_ptr= 65, rd_ptr= 36, full= 0, empty= 0, almost_full = 0, almost_empty = 0, data_count =          29
# Time = 2115, Status: wr_ptr= 65, rd_ptr= 37, full= 0, empty= 0, almost_full = 0, almost_empty = 0, data_count =          28
# Time = 2135, Status: wr_ptr= 65, rd_ptr= 38, full= 0, empty= 0, almost_full = 0, almost_empty = 0, data_count =          27
# Time = 2155, Status: wr_ptr= 65, rd_ptr= 39, full= 0, empty= 0, almost_full = 0, almost_empty = 0, data_count =          26
# Time = 2175, Status: wr_ptr= 65, rd_ptr= 40, full= 0, empty= 0, almost_full = 0, almost_empty = 0, data_count =          25
# Time = 2195, Status: wr_ptr= 65, rd_ptr= 41, full= 0, empty= 0, almost_full = 0, almost_empty = 0, data_count =          24
# Time = 2215, Status: wr_ptr= 65, rd_ptr= 42, full= 0, empty= 0, almost_full = 0, almost_empty = 0, data_count =          23
# Time = 2235, Status: wr_ptr= 65, rd_ptr= 43, full= 0, empty= 0, almost_full = 0, almost_empty = 0, data_count =          22
# Time = 2255, Status: wr_ptr= 65, rd_ptr= 44, full= 0, empty= 0, almost_full = 0, almost_empty = 0, data_count =          21
# Time = 2275, Status: wr_ptr= 65, rd_ptr= 45, full= 0, empty= 0, almost_full = 0, almost_empty = 0, data_count =          20
# Time = 2295, Status: wr_ptr= 65, rd_ptr= 46, full= 0, empty= 0, almost_full = 0, almost_empty = 0, data_count =          19
# Time = 2315, Status: wr_ptr= 65, rd_ptr= 47, full= 0, empty= 0, almost_full = 0, almost_empty = 0, data_count =          18
# Time = 2335, Status: wr_ptr= 65, rd_ptr= 48, full= 0, empty= 0, almost_full = 0, almost_empty = 0, data_count =          17
# Time = 2355, Status: wr_ptr= 65, rd_ptr= 49, full= 0, empty= 0, almost_full = 0, almost_empty = 0, data_count =          16
# Time = 2375, Status: wr_ptr= 65, rd_ptr= 50, full= 0, empty= 0, almost_full = 0, almost_empty = 0, data_count =          15
# Time = 2395, Status: wr_ptr= 65, rd_ptr= 51, full= 0, empty= 0, almost_full = 0, almost_empty = 0, data_count =          14
# Time = 2415, Status: wr_ptr= 65, rd_ptr= 52, full= 0, empty= 0, almost_full = 0, almost_empty = 0, data_count =          13
# Time = 2435, Status: wr_ptr= 65, rd_ptr= 53, full= 0, empty= 0, almost_full = 0, almost_empty = 0, data_count =          12
# Time = 2455, Status: wr_ptr= 65, rd_ptr= 54, full= 0, empty= 0, almost_full = 0, almost_empty = 0, data_count =          11
# Time = 2475, Status: wr_ptr= 65, rd_ptr= 55, full= 0, empty= 0, almost_full = 0, almost_empty = 0, data_count =          10
# Time = 2495, Status: wr_ptr= 65, rd_ptr= 56, full= 0, empty= 0, almost_full = 0, almost_empty = 0, data_count =           9
# Time = 2515, Status: wr_ptr= 65, rd_ptr= 57, full= 0, empty= 0, almost_full = 0, almost_empty = 0, data_count =           8
# Time = 2535, Status: wr_ptr= 65, rd_ptr= 58, full= 0, empty= 0, almost_full = 0, almost_empty = 0, data_count =           7
# Time = 2555, Status: wr_ptr= 65, rd_ptr= 59, full= 0, empty= 0, almost_full = 0, almost_empty = 0, data_count =           6
# Time = 2575, Status: wr_ptr= 65, rd_ptr= 60, full= 0, empty= 0, almost_full = 0, almost_empty = 0, data_count =           5
# Time = 2595, Status: wr_ptr= 65, rd_ptr= 61, full= 0, empty= 0, almost_full = 0, almost_empty = 0, data_count =           4
# Time = 2615, Status: wr_ptr= 65, rd_ptr= 62, full= 0, empty= 0, almost_full = 0, almost_empty = 0, data_count =           3
# Time = 2635, Status: wr_ptr= 65, rd_ptr= 63, full= 0, empty= 0, almost_full = 0, almost_empty = 1, data_count =           2
# Time = 2665, Status: wr_ptr= 65, rd_ptr= 64, full= 0, empty= 0, almost_full = 0, almost_empty = 1, data_count =           1
# Time = 2685, Status: wr_ptr= 65, rd_ptr= 65, full= 0, empty= 1, almost_full = 0, almost_empty = 1, data_count =           0
# Time = 2715, Status: wr_ptr=  0, rd_ptr=  0, full= 0, empty= 1, almost_full = 0, almost_empty = 1, data_count =           0
# ** Note: $stop    : tb_fifo.v(65)
#    Time: 2730 ps  Iteration: 0  Instance: /fifo_DUT
# Break in Module fifo_DUT at tb_fifo.v line 65
# Stopped at tb_fifo.v line 65
