Assignments/Assignment_6/transcript
# vsim lifo_DUT -c -do "run -all" 
# Start time: 20:09:36 on Jul 17,2025
# Loading work.lifo_DUT
# Loading work.lifo
# run -all
# Time: 0, Reset: 0, Push: 0, Pop: 0, Din: 00, Dout: 00, Full: 0, Empty: 1
# Time: 10, Reset: 1, Push: 0, Pop: 0, Din: 00, Dout: 00, Full: 0, Empty: 1
# Time: 20, Reset: 1, Push: 1, Pop: 0, Din: 01, Dout: 00, Full: 0, Empty: 1
# Time: 25, Reset: 1, Push: 1, Pop: 0, Din: 01, Dout: 00, Full: 0, Empty: 0
# Time: 30, Reset: 1, Push: 0, Pop: 0, Din: 01, Dout: 00, Full: 0, Empty: 0
# Time: 40, Reset: 1, Push: 1, Pop: 0, Din: 02, Dout: 00, Full: 0, Empty: 0
# Time: 50, Reset: 1, Push: 0, Pop: 0, Din: 02, Dout: 00, Full: 0, Empty: 0
# Time: 60, Reset: 1, Push: 0, Pop: 1, Din: 02, Dout: 00, Full: 0, Empty: 0
# Time: 65, Reset: 1, Push: 0, Pop: 1, Din: 02, Dout: xx, Full: 0, Empty: 0
# Time: 70, Reset: 1, Push: 0, Pop: 0, Din: 02, Dout: xx, Full: 0, Empty: 0
# Time: 80, Reset: 1, Push: 0, Pop: 1, Din: 02, Dout: xx, Full: 0, Empty: 0
# Time: 85, Reset: 1, Push: 0, Pop: 1, Din: 02, Dout: 02, Full: 0, Empty: 1
# Time: 90, Reset: 1, Push: 0, Pop: 0, Din: 02, Dout: 02, Full: 0, Empty: 1
# Stack is empty
# Time: 120, Reset: 1, Push: 1, Pop: 0, Din: 03, Dout: 02, Full: 0, Empty: 1
# Time: 125, Reset: 1, Push: 1, Pop: 0, Din: 03, Dout: 02, Full: 0, Empty: 0
# Time: 130, Reset: 1, Push: 0, Pop: 0, Din: 03, Dout: 02, Full: 0, Empty: 0
# Time: 140, Reset: 1, Push: 1, Pop: 0, Din: 24, Dout: 02, Full: 0, Empty: 0
# Time: 150, Reset: 1, Push: 0, Pop: 0, Din: 24, Dout: 02, Full: 0, Empty: 0
# Time: 160, Reset: 1, Push: 1, Pop: 0, Din: 81, Dout: 02, Full: 0, Empty: 0
# Time: 170, Reset: 1, Push: 0, Pop: 0, Din: 81, Dout: 02, Full: 0, Empty: 0
# Time: 180, Reset: 1, Push: 1, Pop: 0, Din: 09, Dout: 02, Full: 0, Empty: 0
# Time: 190, Reset: 1, Push: 0, Pop: 0, Din: 09, Dout: 02, Full: 0, Empty: 0
# Time: 200, Reset: 1, Push: 1, Pop: 0, Din: 63, Dout: 02, Full: 0, Empty: 0
# Time: 210, Reset: 1, Push: 0, Pop: 0, Din: 63, Dout: 02, Full: 0, Empty: 0
# Time: 220, Reset: 1, Push: 1, Pop: 0, Din: 0d, Dout: 02, Full: 0, Empty: 0
# Time: 230, Reset: 1, Push: 0, Pop: 0, Din: 0d, Dout: 02, Full: 0, Empty: 0
# Time: 240, Reset: 1, Push: 1, Pop: 0, Din: 8d, Dout: 02, Full: 0, Empty: 0
# Time: 250, Reset: 1, Push: 0, Pop: 0, Din: 8d, Dout: 02, Full: 0, Empty: 0
# Time: 260, Reset: 1, Push: 1, Pop: 0, Din: 65, Dout: 02, Full: 0, Empty: 0
# Time: 270, Reset: 1, Push: 0, Pop: 0, Din: 65, Dout: 02, Full: 0, Empty: 0
# Time: 280, Reset: 1, Push: 1, Pop: 0, Din: 12, Dout: 02, Full: 0, Empty: 0
# Time: 290, Reset: 1, Push: 0, Pop: 0, Din: 12, Dout: 02, Full: 0, Empty: 0
# Time: 300, Reset: 1, Push: 1, Pop: 0, Din: 01, Dout: 02, Full: 0, Empty: 0
# Time: 310, Reset: 1, Push: 0, Pop: 0, Din: 01, Dout: 02, Full: 0, Empty: 0
# Time: 320, Reset: 1, Push: 1, Pop: 0, Din: 0d, Dout: 02, Full: 0, Empty: 0
# Time: 330, Reset: 1, Push: 0, Pop: 0, Din: 0d, Dout: 02, Full: 0, Empty: 0
# Time: 340, Reset: 1, Push: 1, Pop: 0, Din: 76, Dout: 02, Full: 0, Empty: 0
# Time: 350, Reset: 1, Push: 0, Pop: 0, Din: 76, Dout: 02, Full: 0, Empty: 0
# Time: 360, Reset: 1, Push: 1, Pop: 0, Din: 3d, Dout: 02, Full: 0, Empty: 0
# Time: 370, Reset: 1, Push: 0, Pop: 0, Din: 3d, Dout: 02, Full: 0, Empty: 0
# Time: 380, Reset: 1, Push: 1, Pop: 0, Din: ed, Dout: 02, Full: 0, Empty: 0
# Time: 390, Reset: 1, Push: 0, Pop: 0, Din: ed, Dout: 02, Full: 0, Empty: 0
# Time: 400, Reset: 1, Push: 1, Pop: 0, Din: 8c, Dout: 02, Full: 0, Empty: 0
# Time: 410, Reset: 1, Push: 0, Pop: 0, Din: 8c, Dout: 02, Full: 0, Empty: 0
# Time: 420, Reset: 1, Push: 1, Pop: 0, Din: f9, Dout: 02, Full: 0, Empty: 0
# Time: 430, Reset: 1, Push: 0, Pop: 0, Din: f9, Dout: 02, Full: 0, Empty: 0
# Time: 440, Reset: 1, Push: 1, Pop: 0, Din: c6, Dout: 02, Full: 0, Empty: 0
# Time: 450, Reset: 1, Push: 0, Pop: 0, Din: c6, Dout: 02, Full: 0, Empty: 0
# Time: 460, Reset: 1, Push: 1, Pop: 0, Din: c5, Dout: 02, Full: 0, Empty: 0
# Time: 470, Reset: 1, Push: 0, Pop: 0, Din: c5, Dout: 02, Full: 0, Empty: 0
# Time: 480, Reset: 1, Push: 1, Pop: 0, Din: aa, Dout: 02, Full: 0, Empty: 0
# Time: 490, Reset: 1, Push: 0, Pop: 0, Din: aa, Dout: 02, Full: 0, Empty: 0
# Time: 500, Reset: 1, Push: 1, Pop: 0, Din: e5, Dout: 02, Full: 0, Empty: 0
# Time: 510, Reset: 1, Push: 0, Pop: 0, Din: e5, Dout: 02, Full: 0, Empty: 0
# Time: 520, Reset: 1, Push: 1, Pop: 0, Din: 77, Dout: 02, Full: 0, Empty: 0
# Time: 530, Reset: 1, Push: 0, Pop: 0, Din: 77, Dout: 02, Full: 0, Empty: 0
# Time: 540, Reset: 1, Push: 1, Pop: 0, Din: 12, Dout: 02, Full: 0, Empty: 0
# Time: 550, Reset: 1, Push: 0, Pop: 0, Din: 12, Dout: 02, Full: 0, Empty: 0
# Time: 560, Reset: 1, Push: 1, Pop: 0, Din: 8f, Dout: 02, Full: 0, Empty: 0
# Time: 570, Reset: 1, Push: 0, Pop: 0, Din: 8f, Dout: 02, Full: 0, Empty: 0
# Time: 580, Reset: 1, Push: 1, Pop: 0, Din: f2, Dout: 02, Full: 0, Empty: 0
# Time: 590, Reset: 1, Push: 0, Pop: 0, Din: f2, Dout: 02, Full: 0, Empty: 0
# Time: 600, Reset: 1, Push: 1, Pop: 0, Din: ce, Dout: 02, Full: 0, Empty: 0
# Time: 610, Reset: 1, Push: 0, Pop: 0, Din: ce, Dout: 02, Full: 0, Empty: 0
# Time: 620, Reset: 1, Push: 1, Pop: 0, Din: e8, Dout: 02, Full: 0, Empty: 0
# Time: 630, Reset: 1, Push: 0, Pop: 0, Din: e8, Dout: 02, Full: 0, Empty: 0
# Time: 640, Reset: 1, Push: 1, Pop: 0, Din: c5, Dout: 02, Full: 0, Empty: 0
# Time: 650, Reset: 1, Push: 0, Pop: 0, Din: c5, Dout: 02, Full: 0, Empty: 0
# Time: 660, Reset: 1, Push: 1, Pop: 0, Din: 5c, Dout: 02, Full: 0, Empty: 0
# Time: 670, Reset: 1, Push: 0, Pop: 0, Din: 5c, Dout: 02, Full: 0, Empty: 0
# Time: 680, Reset: 1, Push: 1, Pop: 0, Din: bd, Dout: 02, Full: 0, Empty: 0
# Time: 690, Reset: 1, Push: 0, Pop: 0, Din: bd, Dout: 02, Full: 0, Empty: 0
# Time: 700, Reset: 1, Push: 1, Pop: 0, Din: 2d, Dout: 02, Full: 0, Empty: 0
# Time: 710, Reset: 1, Push: 0, Pop: 0, Din: 2d, Dout: 02, Full: 0, Empty: 0
# Time: 720, Reset: 1, Push: 1, Pop: 0, Din: 65, Dout: 02, Full: 0, Empty: 0
# Time: 730, Reset: 1, Push: 0, Pop: 0, Din: 65, Dout: 02, Full: 0, Empty: 0
# Time: 740, Reset: 1, Push: 1, Pop: 0, Din: 63, Dout: 02, Full: 0, Empty: 0
# Time: 750, Reset: 1, Push: 0, Pop: 0, Din: 63, Dout: 02, Full: 0, Empty: 0
# Time: 760, Reset: 1, Push: 1, Pop: 0, Din: 0a, Dout: 02, Full: 0, Empty: 0
# Time: 770, Reset: 1, Push: 0, Pop: 0, Din: 0a, Dout: 02, Full: 0, Empty: 0
# Time: 780, Reset: 1, Push: 1, Pop: 0, Din: 80, Dout: 02, Full: 0, Empty: 0
# Time: 790, Reset: 1, Push: 0, Pop: 0, Din: 80, Dout: 02, Full: 0, Empty: 0
# Time: 800, Reset: 1, Push: 1, Pop: 0, Din: 20, Dout: 02, Full: 0, Empty: 0
# Time: 810, Reset: 1, Push: 0, Pop: 0, Din: 20, Dout: 02, Full: 0, Empty: 0
# Time: 820, Reset: 1, Push: 1, Pop: 0, Din: aa, Dout: 02, Full: 0, Empty: 0
# Time: 830, Reset: 1, Push: 0, Pop: 0, Din: aa, Dout: 02, Full: 0, Empty: 0
# Time: 840, Reset: 1, Push: 1, Pop: 0, Din: 9d, Dout: 02, Full: 0, Empty: 0
# Time: 850, Reset: 1, Push: 0, Pop: 0, Din: 9d, Dout: 02, Full: 0, Empty: 0
# Time: 860, Reset: 1, Push: 1, Pop: 0, Din: 96, Dout: 02, Full: 0, Empty: 0
# Time: 870, Reset: 1, Push: 0, Pop: 0, Din: 96, Dout: 02, Full: 0, Empty: 0
# Time: 880, Reset: 1, Push: 1, Pop: 0, Din: 13, Dout: 02, Full: 0, Empty: 0
# Time: 890, Reset: 1, Push: 0, Pop: 0, Din: 13, Dout: 02, Full: 0, Empty: 0
# Time: 900, Reset: 1, Push: 1, Pop: 0, Din: 0d, Dout: 02, Full: 0, Empty: 0
# Time: 910, Reset: 1, Push: 0, Pop: 0, Din: 0d, Dout: 02, Full: 0, Empty: 0
# Time: 920, Reset: 1, Push: 1, Pop: 0, Din: 53, Dout: 02, Full: 0, Empty: 0
# Time: 930, Reset: 1, Push: 0, Pop: 0, Din: 53, Dout: 02, Full: 0, Empty: 0
# Time: 940, Reset: 1, Push: 1, Pop: 0, Din: 6b, Dout: 02, Full: 0, Empty: 0
# Time: 950, Reset: 1, Push: 0, Pop: 0, Din: 6b, Dout: 02, Full: 0, Empty: 0
# Time: 960, Reset: 1, Push: 1, Pop: 0, Din: d5, Dout: 02, Full: 0, Empty: 0
# Time: 970, Reset: 1, Push: 0, Pop: 0, Din: d5, Dout: 02, Full: 0, Empty: 0
# Time: 980, Reset: 1, Push: 1, Pop: 0, Din: 02, Dout: 02, Full: 0, Empty: 0
# Time: 990, Reset: 1, Push: 0, Pop: 0, Din: 02, Dout: 02, Full: 0, Empty: 0
# Time: 1000, Reset: 1, Push: 1, Pop: 0, Din: ae, Dout: 02, Full: 0, Empty: 0
# Time: 1010, Reset: 1, Push: 0, Pop: 0, Din: ae, Dout: 02, Full: 0, Empty: 0
# Time: 1020, Reset: 1, Push: 1, Pop: 0, Din: 1d, Dout: 02, Full: 0, Empty: 0
# Time: 1030, Reset: 1, Push: 0, Pop: 0, Din: 1d, Dout: 02, Full: 0, Empty: 0
# Time: 1040, Reset: 1, Push: 1, Pop: 0, Din: cf, Dout: 02, Full: 0, Empty: 0
# Time: 1050, Reset: 1, Push: 0, Pop: 0, Din: cf, Dout: 02, Full: 0, Empty: 0
# Time: 1060, Reset: 1, Push: 1, Pop: 0, Din: 23, Dout: 02, Full: 0, Empty: 0
# Time: 1070, Reset: 1, Push: 0, Pop: 0, Din: 23, Dout: 02, Full: 0, Empty: 0
# Time: 1080, Reset: 1, Push: 1, Pop: 0, Din: 0a, Dout: 02, Full: 0, Empty: 0
# Time: 1090, Reset: 1, Push: 0, Pop: 0, Din: 0a, Dout: 02, Full: 0, Empty: 0
# Time: 1100, Reset: 1, Push: 1, Pop: 0, Din: ca, Dout: 02, Full: 0, Empty: 0
# Time: 1110, Reset: 1, Push: 0, Pop: 0, Din: ca, Dout: 02, Full: 0, Empty: 0
# Time: 1120, Reset: 1, Push: 1, Pop: 0, Din: 3c, Dout: 02, Full: 0, Empty: 0
# Time: 1130, Reset: 1, Push: 0, Pop: 0, Din: 3c, Dout: 02, Full: 0, Empty: 0
# Time: 1140, Reset: 1, Push: 1, Pop: 0, Din: f2, Dout: 02, Full: 0, Empty: 0
# Time: 1150, Reset: 1, Push: 0, Pop: 0, Din: f2, Dout: 02, Full: 0, Empty: 0
# Time: 1160, Reset: 1, Push: 1, Pop: 0, Din: 8a, Dout: 02, Full: 0, Empty: 0
# Time: 1170, Reset: 1, Push: 0, Pop: 0, Din: 8a, Dout: 02, Full: 0, Empty: 0
# Time: 1180, Reset: 1, Push: 1, Pop: 0, Din: 41, Dout: 02, Full: 0, Empty: 0
# Time: 1190, Reset: 1, Push: 0, Pop: 0, Din: 41, Dout: 02, Full: 0, Empty: 0
# Time: 1200, Reset: 1, Push: 1, Pop: 0, Din: d8, Dout: 02, Full: 0, Empty: 0
# Time: 1210, Reset: 1, Push: 0, Pop: 0, Din: d8, Dout: 02, Full: 0, Empty: 0
# Time: 1220, Reset: 1, Push: 1, Pop: 0, Din: 78, Dout: 02, Full: 0, Empty: 0
# Time: 1230, Reset: 1, Push: 0, Pop: 0, Din: 78, Dout: 02, Full: 0, Empty: 0
# Time: 1240, Reset: 1, Push: 1, Pop: 0, Din: 89, Dout: 02, Full: 0, Empty: 0
# Time: 1250, Reset: 1, Push: 0, Pop: 0, Din: 89, Dout: 02, Full: 0, Empty: 0
# Time: 1260, Reset: 1, Push: 1, Pop: 0, Din: eb, Dout: 02, Full: 0, Empty: 0
# Time: 1270, Reset: 1, Push: 0, Pop: 0, Din: eb, Dout: 02, Full: 0, Empty: 0
# Time: 1280, Reset: 1, Push: 1, Pop: 0, Din: b6, Dout: 02, Full: 0, Empty: 0
# Time: 1290, Reset: 1, Push: 0, Pop: 0, Din: b6, Dout: 02, Full: 0, Empty: 0
# Time: 1300, Reset: 1, Push: 1, Pop: 0, Din: c6, Dout: 02, Full: 0, Empty: 0
# Time: 1310, Reset: 1, Push: 0, Pop: 0, Din: c6, Dout: 02, Full: 0, Empty: 0
# Time: 1320, Reset: 1, Push: 1, Pop: 0, Din: ae, Dout: 02, Full: 0, Empty: 0
# Time: 1330, Reset: 1, Push: 0, Pop: 0, Din: ae, Dout: 02, Full: 0, Empty: 0
# Time: 1340, Reset: 1, Push: 1, Pop: 0, Din: bc, Dout: 02, Full: 0, Empty: 0
# Time: 1350, Reset: 1, Push: 0, Pop: 0, Din: bc, Dout: 02, Full: 0, Empty: 0
# Time: 1360, Reset: 1, Push: 1, Pop: 0, Din: 2a, Dout: 02, Full: 0, Empty: 0
# Time: 1365, Reset: 1, Push: 1, Pop: 0, Din: 2a, Dout: 02, Full: 1, Empty: 0
# Time: 1370, Reset: 1, Push: 0, Pop: 0, Din: 2a, Dout: 02, Full: 1, Empty: 0
# Stack is full
# Time: 1380, Reset: 1, Push: 1, Pop: 0, Din: 0b, Dout: 02, Full: 1, Empty: 0
# Time: 1390, Reset: 1, Push: 0, Pop: 0, Din: 0b, Dout: 02, Full: 1, Empty: 0
# Stack is full
# Time: 1400, Reset: 1, Push: 1, Pop: 0, Din: 71, Dout: 02, Full: 1, Empty: 0
# Time: 1410, Reset: 1, Push: 0, Pop: 0, Din: 71, Dout: 02, Full: 1, Empty: 0
# ** Note: $finish    : tb_lifo.v(62)
#    Time: 1510 ps  Iteration: 0  Instance: /lifo_DUT
# End time: 20:09:36 on Jul 17,2025, Elapsed time: 0:00:00
# Errors: 0, Warnings: 0
